…
rides <- tidybike %>% 
  select(-temp_mean) %>%
  pivot_wider(values_from = rides, names_from = month, names_prefix = "rides_") %>%
  rename_with(tolower) %>%
  rename(year = yr)

## Going from wide to long
# pivot_longer
# gather

rides %>% gather(key = "month", value = "rides", -year)
```

```
## # A tibble: 24 x 3
## # Groups:   year [2]
##     year month           rides
##    <int> <chr>           <int>
##  1  2011 rides_january   38189
##  2  2012 rides_january   96744
##  3  2011 rides_february  48215
##  4  2012 rides_february 103137
##  5  2011 rides_march     64045
##  6  2012 rides_march    164875
##  7  2011 rides_april     94870
##  8  2012 rides_april    174224
##  9  2011 rides_may      135821
## 10  2012 rides_may      195865
## # ... with 14 more rows
```
…
